{
  "images" : [
    {
      "filename" : "casual-life-3d-man-and-woman-sitting-in-chairs 1.png",
      "idiom" : "universal",
      "scale" : "1x"
    },
    {
      "filename" : "casual-life-3d-man-and-woman-sitting-in-chairs 1@2x.png",
      "idiom" : "universal",
      "scale" : "2x"
    },
    {
      "filename" : "casual-life-3d-man-and-woman-sitting-in-chairs 1@3x.png",
      "idiom" : "universal",
      "scale" : "3x"
    }
  ],
  "info" : {
    "author" : "xcode",
    "version" : 1
  }
}
